DigitalLogic/week3/lab_a1_p1/lab_a1_p1.sim/sim_3/behav/xsim/simulate.log
Vivado Simulator 2017.4
Time resolution is 1 ps
0 0 0
0 1 1
0 2 2
0 3 3
1 0 1
1 1 2
1 2 3
1 3 4
2 0 2
2 1 3
2 2 4
2 3 5
3 0 3
3 1 4
3 2 5
3 3 6
$finish called at time : 160 ns : File "C:/SUSCode/DigitalLogic/week3/lab_a1_p1/lab_a1_p1.srcs/sim_3/new/sim_3.v" Line 16
